<?xml version="1.0" encoding="UTF-8"?>
<svg width="24px" height="24px" viewBox="0 0 24 24" version="1.1" xmlns="http://www.w3.org/2000/svg"
     xmlns:xlink="http://www.w3.org/1999/xlink">
    <!-- Generator: Sketch 50.2 (55047) - http://www.bohemiancoding.com/sketch -->
    <title>Stockholm-icons / Media / Music-cloud</title>
    <desc>Created with Sketch.</desc>
    <defs></defs>
    <g id="Stockholm-icons-/-Media-/-Music-cloud" stroke="none" stroke-width="1" fill="none" fill-rule="evenodd">
        <rect id="bound" x="0" y="0" width="24" height="24"></rect>
        <path
            d="M14.9297424,9 L18,9 C21.3137085,9 24,11.6862915 24,15 C24,18.3137085 21.3137085,21 18,21 L9,21 C8.84387716,21 8.68914702,20.9940371 8.53602492,20.9823266 C8.35886438,20.9940469 8.18012741,21 8,21 C3.581722,21 0,17.418278 0,13 C0,8.581722 3.581722,5 8,5 C10.9611294,5 13.5465048,6.60879452 14.9297424,9 Z"
            id="Combined-Shape" fill="#000000" opacity="0.3"></path>
        <path
            d="M10.5833333,18.5 C9.70888248,18.5 9,17.8919916 9,17.1419753 C9,16.391959 9.70888248,15.7839506 10.5833333,15.7839506 C10.7683909,15.7839506 10.9460333,15.8111809 11.1111111,15.8612248 L11.1111111,12.0925343 C11.1111111,11.8139918 11.2798844,11.5677693 11.5277603,11.484687 L14.5624826,10.5294328 C14.9448163,10.4012833 15.3333333,10.7076449 15.3333333,11.1372801 L15.3333333,12.0925343 C15.3333333,12.4109524 15.0436696,12.6143119 14.8055556,12.6728395 C14.4629575,12.7570489 13.5833278,12.9381188 12.1666667,13.2160494 L12.1666667,17.1697968 C12.1666667,17.2185655 12.1628241,17.2637188 12.1553303,17.3053217 C12.0612659,17.9783191 11.3933298,18.5 10.5833333,18.5 Z"
            id="Combined-Shape" fill="#000000"></path>
    </g>
</svg>
