<?xml version="1.0" encoding="UTF-8"?>
<svg width="24px" height="24px" viewBox="0 0 24 24" version="1.1" xmlns="http://www.w3.org/2000/svg"
     xmlns:xlink="http://www.w3.org/1999/xlink">
    <!-- Generator: Sketch 50.2 (55047) - http://www.bohemiancoding.com/sketch -->
    <title>Stockholm-icons / Food / Cookie</title>
    <desc>Created with Sketch.</desc>
    <defs></defs>
    <g id="Stockholm-icons-/-Food-/-Cookie" stroke="none" stroke-width="1" fill="none" fill-rule="evenodd">
        <rect id="bound" x="0" y="0" width="24" height="24"></rect>
        <polygon id="Star-3" fill="#000000" opacity="0.3"
                 points="12 20.6599888 9.46440699 20.6354368 7.31805655 19.2852462 5.19825383 17.8937466 4.12259707 15.5974894 3.09160702 13.2808335 3.42815736 10.7675551 3.81331204 8.26126488 5.45521712 6.32891335 7.13423264 4.4287182 9.5601992 3.69080156 12 3 14.4398008 3.69080156 16.8657674 4.4287182 18.5447829 6.32891335 20.186688 8.26126488 20.5718426 10.7675551 20.908393 13.2808335 19.8774029 15.5974894 18.8017462 17.8937466 16.6819434 19.2852462 14.535593 20.6354368"></polygon>
        <circle id="Oval" fill="#000000" opacity="0.3" cx="8.5" cy="13.5" r="1.5"></circle>
        <circle id="Oval-Copy" fill="#000000" opacity="0.3" cx="13.5" cy="7.5" r="1.5"></circle>
        <circle id="Oval-Copy-2" fill="#000000" opacity="0.3" cx="14.5" cy="15.5" r="1.5"></circle>
    </g>
</svg>
