<?xml version="1.0" encoding="UTF-8"?>
<svg width="24px" height="24px" viewBox="0 0 24 24" version="1.1" xmlns="http://www.w3.org/2000/svg"
     xmlns:xlink="http://www.w3.org/1999/xlink">
    <!-- Generator: Sketch 50.2 (55047) - http://www.bohemiancoding.com/sketch -->
    <title>Stockholm-icons / Design / Flatten</title>
    <desc>Created with Sketch.</desc>
    <defs></defs>
    <g id="Stockholm-icons-/-Design-/-Flatten" stroke="none" stroke-width="1" fill="none" fill-rule="evenodd">
        <rect id="bound" x="0" y="0" width="24" height="24"></rect>
        <circle id="Combined-Shape" fill="#000000" cx="9" cy="15" r="6"></circle>
        <path
            d="M8.8012943,7.00241953 C9.83837775,5.20768121 11.7781543,4 14,4 C17.3137085,4 20,6.6862915 20,10 C20,12.2218457 18.7923188,14.1616223 16.9975805,15.1987057 C16.9991904,15.1326658 17,15.0664274 17,15 C17,10.581722 13.418278,7 9,7 C8.93357256,7 8.86733422,7.00080962 8.8012943,7.00241953 Z"
            id="Combined-Shape" fill="#000000" opacity="0.3"></path>
    </g>
</svg>
