<?xml version="1.0" encoding="UTF-8"?>
<svg width="24px" height="24px" viewBox="0 0 24 24" version="1.1" xmlns="http://www.w3.org/2000/svg"
     xmlns:xlink="http://www.w3.org/1999/xlink">
    <!-- Generator: Sketch 50.2 (55047) - http://www.bohemiancoding.com/sketch -->
    <title>Stockholm-icons / Design / Triangle</title>
    <desc>Created with Sketch.</desc>
    <defs></defs>
    <g id="Stockholm-icons-/-Design-/-Triangle" stroke="none" stroke-width="1" fill="none" fill-rule="evenodd">
        <rect id="bound" x="0" y="0" width="24" height="24"></rect>
        <path
            d="M3.95428417,19 L20.0457158,19 C20.3218582,19 20.5457158,18.7761424 20.5457158,18.5 C20.5457158,18.3982978 20.5147019,18.2990138 20.4568119,18.215395 L12.4110961,6.59380547 C12.2539131,6.36676337 11.9424371,6.31013137 11.715395,6.46731437 C11.6659703,6.50153145 11.623121,6.54438079 11.5889039,6.59380547 L3.54318807,18.215395 C3.38600507,18.4424371 3.44263707,18.7539131 3.66967918,18.9110961 C3.75329796,18.968986 3.85258194,19 3.95428417,19 Z"
            id="Path-25" fill="#000000"></path>
    </g>
</svg>
