<?xml version="1.0" encoding="iso-8859-1"?>
<!-- Generator: Adobe Illustrator 19.0.0, SVG Export Plug-In . SVG Version: 6.00 Build 0)  -->
<svg xmlns="http://www.w3.org/2000/svg" xmlns:xlink="http://www.w3.org/1999/xlink" version="1.1" id="Layer_1" x="0px"
     y="0px" viewBox="0 0 512 512" style="enable-background:new 0 0 512 512;" xml:space="preserve">
<rect style="fill:#FF4B55;" width="512" height="170.67"/>
    <rect y="341.33" style="fill:#41479B;" width="512" height="170.67"/>
    <rect y="170.67" style="fill:#F5F5F5;" width="512" height="170.67"/>
    <path style="fill:#FF4B55;"
          d="M256,188.632c-37.206,0-67.368,30.161-67.368,67.368s30.162,67.368,67.368,67.368  s67.368-30.161,67.368-67.368S293.206,188.632,256,188.632z M256,306.807c-28.06,0-50.807-22.747-50.807-50.807  S227.94,205.193,256,205.193S306.807,227.94,306.807,256S284.06,306.807,256,306.807z"/>
    <circle style="fill:#41479B;" cx="256" cy="256" r="23.368"/>
    <path style="fill:#FFE15A;"
          d="M257.522,238.299l3.767,11.294l11.905,0.092c1.541,0.012,2.18,1.979,0.94,2.895l-9.577,7.072  l3.591,11.351c0.465,1.47-1.208,2.685-2.462,1.789L256,265.868l-9.685,6.923c-1.254,0.896-2.927-0.319-2.462-1.789l3.591-11.351  l-9.577-7.072c-1.24-0.916-0.601-2.883,0.94-2.895l11.905-0.092l3.767-11.294C254.966,236.837,257.034,236.837,257.522,238.299z"/>
    <path style="fill:#64C86E;"
          d="M300.202,256.544c0,0,1.335-6.176-5.234,1.234c0,0,0.095-2.109-0.089-3.849  c1.444-1.565,3.237-4.986,2.817-12.29c0,0-1.03-6.234-4.413,3.073c0,0-0.923-2.745-1.905-4.266c0.816-1.69,1.444-4.77-0.51-10.604  c0,0-2.285-4.99-2.997,3.583c0,0-1.876-2.806-3.095-3.495c0.236-1.383,0.05-3.757-2.709-7.603c0,0-2.754-3.083-1.362,3.245  c0,0-2.52-2.042-3.326-1.8c-0.418-1.209-1.629-3.252-5.692-5.941c0,0-3.522-1.929,0.519,3.103c0,0-3.571-1.416-3.529-0.605  c0.042,0.811,1.769,2.309,3.187,2.978c0,0-5.237,0.544-3.087,1.711c0,0,5.314,1.832,8.506,0.069c0.256,0.93,0.776,1.972,1.549,2.721  c0,0-6.234-1.21-4.546,0.661c0,0,4.675,3.436,9.295,2.909c-0.022,1.273,0.363,2.917,1.039,4.148c0,0-7.432-3.974-6.024-0.94  c0,0,4.445,5.945,10.358,7.236c-0.243,1.322-0.237,2.921,0.082,4.242c0,0-7.055-6.663-6.408-2.867c0,0,2.949,7.817,8.927,11.139  c-0.487,0.992-0.887,2.103-1.033,3.137c0,0-4.11-8.793-4.905-5.023c0,0-0.136,8.782,4.553,14.034  c-0.999,0.83-1.977,1.993-2.577,3.132c0,0-0.9-9.661-2.921-6.384c0,0-2.793,7.32-0.903,13.628c-1.249,0.368-2.612,1.051-3.619,1.868  c0,0,2.981-9.235-0.169-7.02c0,0-5.609,6.066-6.036,12.893c-1.487-0.03-3.5,0.505-4.958,1.376c0,0,4.266-8.715,0.832-6.971  c0,0-6.118,4.996-7.696,11.483c-1.446,0.825-3.904,2.228-6.359,3.62c-1.427-0.828-2.816-1.636-4.002-2.327l0.04-0.064  l-13.907-11.658l0.276,3.813l-6.983-12.488l-0.862,4.25l-2.287-13.806l-2.028,2.037l0.785-12.88l-2.644,1.425l4.801-9.58  l-2.256,0.637l5.933-5.688l-3.135,0.267l7.5-3.406l-2.742-0.421l7.322-3.707l-3.154-0.154l9.492-3.283l-1.738-1.52l8.216-2.424  l-9.845-0.75l2.805-3.451l-7.512,3.844l1.078-5.196l-6.57,6.766l1.143-4.738l-6.15,6.119l0.398-4.618l-6.081,10.297l-0.784-4.608  l-5.053,11.561l-1.391-5.037l-2.256,14.337l-1.882-2.133l2.474,13.829l-3.138-2.353l5.754,12.421c0,0-4.184-1.831-4.707-1.831  s10.003,10.689,10.003,10.689l-5.492-0.588l10.611,7.461l-3.943,0.974l8.826,3.431l-2.158,1.668l18.273,1.307  c0,0,1.762,1.467,4.158,3.166c-1.265,0.713-2.377,1.335-3.067,1.712c-0.695,0.379-1.509,0.416-2.24,0.112  c-1.734-0.727-4.245-1.753-5.455-2.238c0,0,0.117,5.194,5.525,5.324c2.222,0.051,5.25-1.362,8.066-3.036  c2.884,1.798,6.065,3.384,8.363,3.33c5.29-0.13,5.406-5.324,5.406-5.324c-1.184,0.485-3.641,1.511-5.337,2.238  c-0.715,0.304-1.512,0.267-2.191-0.112c-0.75-0.419-1.982-1.124-3.396-1.94c1.443-0.979,2.654-1.866,3.505-2.522  c1.33,1.046,5.14,2.884,13.655-0.313c0,0,5.647-2.836-4.245-3.301c0,0,1.836-1.347,3.075-2.627  c1.622,0.835,5.633,1.824,13.255-2.361c0,0,5.186-3.612-4.671-2.662c0,0,1.316-1.281,2.351-2.586  c1.701,0.191,5.9-0.264,11.468-7.385c0,0,3.342-5.363-5.343-0.607c0,0,1.123-2.677,1.388-4.469  C294.981,266.013,297.907,263.491,300.202,256.544z"/>
    <g>
</g>
    <g>
</g>
    <g>
</g>
    <g>
</g>
    <g>
</g>
    <g>
</g>
    <g>
</g>
    <g>
</g>
    <g>
</g>
    <g>
</g>
    <g>
</g>
    <g>
</g>
    <g>
</g>
    <g>
</g>
    <g>
</g>
</svg>
