<?xml version="1.0" encoding="iso-8859-1"?>
<!-- Generator: Adobe Illustrator 19.0.0, SVG Export Plug-In . SVG Version: 6.00 Build 0)  -->
<svg xmlns="http://www.w3.org/2000/svg" xmlns:xlink="http://www.w3.org/1999/xlink" version="1.1" id="Layer_1" x="0px"
     y="0px" viewBox="0 0 512 512" style="enable-background:new 0 0 512 512;" xml:space="preserve">
<rect style="fill:#FF4B55;" width="512" height="512"/>
    <polygon style="fill:#464655;" points="0,0 0,512 512,512 "/>
    <g>
	<path style="fill:#F5F5F5;"
          d="M71.604,292.026l-5.052,15.148l-15.968,0.124c-1.531,0.012-2.166,1.966-0.934,2.876l12.845,9.486   l-4.817,15.224c-0.462,1.46,1.2,2.668,2.446,1.777l12.991-9.285l12.991,9.285c1.246,0.89,2.908-0.317,2.446-1.777l-4.817-15.224   l12.845-9.486c1.232-0.91,0.597-2.864-0.934-2.876l-15.968-0.124l-5.052-15.148C74.143,290.574,72.088,290.574,71.604,292.026z"/>
        <path style="fill:#F5F5F5;"
              d="M180.387,292.026l-5.052,15.148l-15.968,0.124c-1.531,0.012-2.166,1.966-0.934,2.876l12.845,9.486   l-4.816,15.224c-0.462,1.46,1.2,2.668,2.446,1.777l12.991-9.285l12.991,9.285c1.246,0.89,2.908-0.317,2.446-1.777l-4.817-15.224   l12.845-9.486c1.232-0.91,0.597-2.864-0.934-2.876l-15.968-0.124l-5.052-15.148C182.926,290.574,180.872,290.574,180.387,292.026z"/>
        <path style="fill:#F5F5F5;"
              d="M125.995,226.089l-5.052,15.148l-15.968,0.124c-1.531,0.012-2.166,1.966-0.934,2.876l12.845,9.486   l-4.817,15.224c-0.462,1.46,1.2,2.668,2.446,1.777l12.991-9.285l12.991,9.285c1.246,0.89,2.908-0.317,2.446-1.777l-4.817-15.224   l12.845-9.486c1.232-0.91,0.597-2.864-0.934-2.876l-15.968-0.124l-5.052-15.148C128.535,224.637,126.48,224.637,125.995,226.089z"/>
        <path style="fill:#F5F5F5;"
              d="M125.995,388.238l-5.052,15.148l-15.968,0.124c-1.531,0.012-2.166,1.966-0.934,2.876l12.845,9.486   l-4.817,15.224c-0.462,1.46,1.2,2.668,2.446,1.777l12.991-9.285l12.991,9.285c1.246,0.89,2.908-0.317,2.446-1.777l-4.817-15.224   l12.845-9.486c1.232-0.91,0.597-2.864-0.934-2.876l-15.968-0.124l-5.052-15.148C128.535,386.785,126.48,386.786,125.995,388.238z"/>
        <path style="fill:#F5F5F5;"
              d="M151.333,348.73l-2.687,8.055l-8.491,0.066c-0.814,0.006-1.152,1.045-0.497,1.529l6.831,5.044   l-2.561,8.096c-0.246,0.776,0.638,1.419,1.301,0.945l6.908-4.938l6.908,4.938c0.662,0.473,1.546-0.169,1.301-0.945l-2.561-8.096   l6.831-5.044c0.655-0.484,0.317-1.523-0.497-1.529l-8.491-0.066l-2.687-8.055C152.684,347.958,151.591,347.958,151.333,348.73z"/>
</g>
    <path style="fill:#FFE15A;"
          d="M426.266,191.875c-1.292-10.003-5.565-19.889-8.671-25.995c1.532,0.766,3.917,2.148,3.917,2.148  l-2.104-7.628c5.261,2.104,9.206,6.181,9.206,6.181c-2.63-13.152-6.707-19.333-6.707-19.333l3.288,1.184  c-6.181-15.256-15.387-19.596-15.387-19.596l5.261-1.315c-7.759-9.732-18.675-13.02-18.675-13.02l7.102-3.419  c-18.807-10.653-36.956,0.526-36.956,0.526s6.313-6.576,8.68-9.338s-3.288-3.682-3.288-3.682s5.524-3.814,5.261-6.05  s-5.261-1.052-5.261-1.052s4.34-4.472,4.34-6.97s-4.472-0.921-4.472-0.921s1.447-3.025,1.841-5.392  c0.395-2.367-3.945-0.395-3.945-0.395s4.866-8.68,4.603-10.521c-0.263-1.841-12.757,5.918-21.7,14.467s-7.869,22.286-7.077,25.554  s1.287,10.893-2.673,13.566c-3.961,2.674-11.029-3.874-14.536-7.907c-3.507-4.033-7.891-2.63-12.45-1.052  c-4.559,1.578-13.152-0.526-15.782-0.877c-2.63-0.35,2.981,2.63,7.715,4.384c4.735,1.753,6.839,5.962,13.503,8.417  c5.837,2.15,10.511,7.611,5.918,10.127c-3.579,1.96-3.551-1.184-19.333-5.261c-15.782-4.077-34.72,36.035-34.72,36.035  c10.139-1.253,15.321-7.326,15.321-7.326l-2.739,7.856c7.493-1.419,11.156-5.975,11.156-5.975l-1.98,7.922  c5.744-1.783,9.704-7.922,9.704-7.922l-1.684,7.823c5.644-2.673,8.615-7.823,8.615-7.823c0.594,2.872,1.061,8.733,1.061,8.733  c8.742-4.673,10.784-11.31,10.784-11.31c9.995,30.249,24.462,35.246,24.462,35.246l0.789-7.891  c4.472,6.313,10.784,9.469,10.784,9.469l-1.052-6.839c15.519,18.938,33.405,23.673,33.405,23.673l-4.58-10.481l5.632,1.144  c-6.05-5.129-8.286-14.072-8.286-14.072l4.735,0.789c-7.628-6.97-11.442-14.993-11.442-14.993l4.603,0.789  c-1.447-2.236-2.63-10.127-2.63-10.127c8.417,2.63,12.757,5.918,12.757,5.918l0.498-2.864c7.221,5.203,19.079,14.889,27.297,27.066  c0.011,3.973-0.631,7.983-2.281,12.009c-7.538,18.386-27.355,17.185-36.123,13.327c0,0,27.18,21.218,42.085-8.943  c0.944-1.911,1.536-3.956,1.959-6.054c1.86,4.434,3.144,9.059,3.39,13.857c1.578,30.775-30.512,27.881-30.512,27.881  s35.509,14.204,37.088-26.829C436.329,209.67,432.466,200.548,426.266,191.875z M394.002,161.157l0.154-0.888  c5.392,1.578,11.047,5.392,11.047,5.392l1.249-3.748c5.335,6.411,9.596,13.309,11.968,20.452  C411.221,174.627,402.589,167.441,394.002,161.157z"/>
    <g>
</g>
    <g>
</g>
    <g>
</g>
    <g>
</g>
    <g>
</g>
    <g>
</g>
    <g>
</g>
    <g>
</g>
    <g>
</g>
    <g>
</g>
    <g>
</g>
    <g>
</g>
    <g>
</g>
    <g>
</g>
    <g>
</g>
</svg>
