<?xml version="1.0" encoding="UTF-8"?>
<svg width="24px" height="24px" viewBox="0 0 24 24" version="1.1" xmlns="http://www.w3.org/2000/svg"
     xmlns:xlink="http://www.w3.org/1999/xlink">
    <!-- Generator: Sketch 50.2 (55047) - http://www.bohemiancoding.com/sketch -->
    <title>Stockholm-icons / Files / Music</title>
    <desc>Created with Sketch.</desc>
    <defs></defs>
    <g id="Stockholm-icons-/-Files-/-Music" stroke="none" stroke-width="1" fill="none" fill-rule="evenodd">
        <polygon id="Shape" points="0 0 24 0 24 24 0 24"></polygon>
        <path
            d="M5.85714286,2 L13.7364114,2 C14.0910962,2 14.4343066,2.12568431 14.7051108,2.35473959 L19.4686994,6.3839416 C19.8056532,6.66894833 20,7.08787823 20,7.52920201 L20,20.0833333 C20,21.8738751 19.9795521,22 18.1428571,22 L5.85714286,22 C4.02044787,22 4,21.8738751 4,20.0833333 L4,3.91666667 C4,2.12612489 4.02044787,2 5.85714286,2 Z"
            id="Combined-Shape" fill="#000000" fill-rule="nonzero" opacity="0.3"></path>
        <path
            d="M9.83333333,17 C8.82081129,17 8,16.3159906 8,15.4722222 C8,14.6284539 8.82081129,13.9444444 9.83333333,13.9444444 C10.0476105,13.9444444 10.2533018,13.9750785 10.4444444,14.0313779 L10.4444444,9.79160113 C10.4444444,9.47824076 10.6398662,9.20124044 10.9268804,9.10777287 L14.4407693,8.0331119 C14.8834716,7.88894376 15.3333333,8.23360047 15.3333333,8.71694016 L15.3333333,9.79160113 C15.3333333,10.1498215 14.9979332,10.3786009 14.7222222,10.4444444 C14.3255297,10.53918 13.3070112,10.7428837 11.6666667,11.0555556 L11.6666667,15.5035214 C11.6666667,15.5583862 11.6622174,15.6091837 11.6535404,15.6559869 C11.5446237,16.4131089 10.771224,17 9.83333333,17 Z"
            id="Combined-Shape" fill="#000000"></path>
    </g>
</svg>
