<?xml version="1.0" encoding="UTF-8"?>
<svg width="24px" height="24px" viewBox="0 0 24 24" version="1.1" xmlns="http://www.w3.org/2000/svg"
     xmlns:xlink="http://www.w3.org/1999/xlink">
    <!-- Generator: Sketch 50.2 (55047) - http://www.bohemiancoding.com/sketch -->
    <title>Stockholm-icons / Communication / Forward</title>
    <desc>Created with Sketch.</desc>
    <defs></defs>
    <g id="Stockholm-icons-/-Communication-/-Forward" stroke="none" stroke-width="1" fill="none" fill-rule="evenodd">
        <rect id="bound" x="0" y="0" width="24" height="24"></rect>
        <path
            d="M12.6571817,10 L12.6571817,5.67013288 C12.6571817,5.25591932 12.3213953,4.92013288 11.9071817,4.92013288 C11.7234961,4.92013288 11.5461972,4.98754181 11.4089088,5.10957589 L4.25168161,11.4715556 C3.94209454,11.7467441 3.91420899,12.2207984 4.1893975,12.5303855 C4.19915701,12.541365 4.209237,12.5520553 4.21962441,12.5624427 L11.3768516,19.7196699 C11.6697448,20.0125631 12.1446186,20.0125631 12.4375118,19.7196699 C12.5781641,19.5790176 12.6571817,19.3882522 12.6571817,19.1893398 L12.6571817,15 C14.004369,14.9188289 16.83481,14.9157978 21.1485046,14.9909069 L21.1485051,14.9908794 C21.4245904,14.9956866 21.6522988,14.7757721 21.6571059,14.4996868 C21.6571564,14.4967857 21.6571817,14.4938842 21.6571817,14.4909827 L21.6572352,10.5050185 C21.6572352,10.2288465 21.4333536,10.0049649 21.1571817,10.0049649 C21.1555649,10.0049649 21.1539481,10.0049728 21.1523314,10.0049884 C16.0215539,10.0547574 13.1898373,10.0530946 12.6571817,10 Z"
            id="Shape" fill="#000000" fill-rule="nonzero"
            transform="translate(12.828591, 12.429736) scale(-1, 1) translate(-12.828591, -12.429736) "></path>
    </g>
</svg>
