<?xml version="1.0" encoding="UTF-8"?>
<svg width="24px" height="24px" viewBox="0 0 24 24" version="1.1" xmlns="http://www.w3.org/2000/svg"
     xmlns:xlink="http://www.w3.org/1999/xlink">
    <!-- Generator: Sketch 50.2 (55047) - http://www.bohemiancoding.com/sketch -->
    <title>Stockholm-icons / Electric / Shutdown</title>
    <desc>Created with Sketch.</desc>
    <defs></defs>
    <g id="Stockholm-icons-/-Electric-/-Shutdown" stroke="none" stroke-width="1" fill="none" fill-rule="evenodd">
        <rect id="bound" x="0" y="0" width="24" height="24"></rect>
        <path
            d="M7.62302337,5.30262097 C8.08508802,5.000107 8.70490146,5.12944838 9.00741543,5.59151303 C9.3099294,6.05357769 9.18058801,6.67339112 8.71852336,6.97590509 C7.03468892,8.07831239 6,9.95030239 6,12 C6,15.3137085 8.6862915,18 12,18 C15.3137085,18 18,15.3137085 18,12 C18,9.99549229 17.0108275,8.15969002 15.3875704,7.04698597 C14.9320347,6.73472706 14.8158858,6.11230651 15.1281448,5.65677076 C15.4404037,5.20123501 16.0628242,5.08508618 16.51836,5.39734508 C18.6800181,6.87911023 20,9.32886071 20,12 C20,16.418278 16.418278,20 12,20 C7.581722,20 4,16.418278 4,12 C4,9.26852332 5.38056879,6.77075716 7.62302337,5.30262097 Z"
            id="Oval-25" fill="#000000" fill-rule="nonzero"></path>
        <rect id="Rectangle" fill="#000000" opacity="0.3" x="11" y="3" width="2" height="10" rx="1"></rect>
    </g>
</svg>
