<?xml version="1.0" encoding="UTF-8"?>
<svg width="24px" height="24px" viewBox="0 0 24 24" version="1.1" xmlns="http://www.w3.org/2000/svg"
     xmlns:xlink="http://www.w3.org/1999/xlink">
    <!-- Generator: Sketch 50.2 (55047) - http://www.bohemiancoding.com/sketch -->
    <title>Stockholm-icons / Home / Flower2</title>
    <desc>Created with Sketch.</desc>
    <defs></defs>
    <g id="Stockholm-icons-/-Home-/-Flower2" stroke="none" stroke-width="1" fill="none" fill-rule="evenodd">
        <polygon id="bound" points="0 0 24 0 24 24 0 24"></polygon>
        <circle id="Oval-32" fill="#000000" opacity="0.3" cx="15" cy="17" r="5"></circle>
        <circle id="Oval-32-Copy" fill="#000000" opacity="0.3" cx="9" cy="17" r="5"></circle>
        <circle id="Oval-32-Copy-2" fill="#000000" opacity="0.3" cx="7" cy="11" r="5"></circle>
        <circle id="Oval-32-Copy-3" fill="#000000" opacity="0.3" cx="17" cy="11" r="5"></circle>
        <circle id="Oval-32-Copy-4" fill="#000000" opacity="0.3" cx="12" cy="7" r="5"></circle>
    </g>
</svg>
