<?xml version="1.0" encoding="iso-8859-1"?>
<!-- Generator: Adobe Illustrator 19.0.0, SVG Export Plug-In . SVG Version: 6.00 Build 0)  -->
<svg xmlns="http://www.w3.org/2000/svg" xmlns:xlink="http://www.w3.org/1999/xlink" version="1.1" id="Layer_1" x="0px"
     y="0px" viewBox="0 0 512 512" style="enable-background:new 0 0 512 512;" xml:space="preserve">
<rect style="fill:#41479B;" width="512" height="512"/>
    <polygon style="fill:#73AF00;" points="512,512 0,0 512,0 "/>
    <path style="fill:#FFE15A;"
          d="M316.83,211.556c44.388,73.235-32.04,149.663-105.275,105.275  c-6.697-4.059-12.326-9.688-16.386-16.386c-44.388-73.235,32.04-149.663,105.275-105.275  C307.142,199.229,312.771,204.858,316.83,211.556z"/>
    <g>
	<path style="fill:#F5F5F5;"
          d="M44.838,327.55l3.064,7.761l7.978-2.443c0.443-0.136,0.824,0.341,0.593,0.743l-4.157,7.234   l6.884,4.714c0.382,0.262,0.247,0.857-0.212,0.927l-8.248,1.26l0.607,8.321c0.034,0.462-0.516,0.727-0.856,0.412l-6.128-5.663   l-6.128,5.663c-0.34,0.315-0.89,0.05-0.856-0.412l0.607-8.321l-8.248-1.26c-0.458-0.07-0.594-0.665-0.212-0.927l6.884-4.714   l-4.157-7.234c-0.231-0.402,0.149-0.879,0.593-0.743l7.978,2.443l3.064-7.761C44.057,327.118,44.668,327.118,44.838,327.55z"/>
        <path style="fill:#F5F5F5;"
              d="M156.416,306.629l3.064,7.761l7.978-2.443c0.443-0.136,0.824,0.341,0.593,0.743l-4.157,7.234   l6.884,4.714c0.382,0.262,0.247,0.857-0.212,0.927l-8.248,1.26l0.607,8.321c0.034,0.462-0.516,0.727-0.856,0.412l-6.128-5.663   l-6.128,5.663c-0.34,0.315-0.89,0.05-0.856-0.412l0.607-8.321l-8.248-1.26c-0.458-0.07-0.594-0.665-0.212-0.927l6.884-4.714   l-4.157-7.234c-0.231-0.402,0.149-0.879,0.593-0.743l7.978,2.443l3.064-7.761C155.636,306.198,156.246,306.198,156.416,306.629z"/>
        <path style="fill:#F5F5F5;"
              d="M100.627,256.318l3.064,7.761l7.978-2.443c0.443-0.136,0.824,0.341,0.593,0.743l-4.157,7.234   l6.884,4.714c0.382,0.262,0.247,0.857-0.212,0.927l-8.248,1.26l0.607,8.321c0.034,0.462-0.516,0.727-0.856,0.412l-6.128-5.663   l-6.128,5.663c-0.34,0.315-0.89,0.05-0.856-0.412l0.607-8.321l-8.248-1.26c-0.458-0.07-0.594-0.665-0.212-0.927l6.884-4.714   l-4.157-7.234c-0.231-0.402,0.149-0.879,0.593-0.743l7.978,2.443l3.064-7.761C99.847,255.887,100.457,255.887,100.627,256.318z"/>
        <path style="fill:#F5F5F5;"
              d="M100.627,439.128l3.064,7.761l7.978-2.443c0.443-0.136,0.824,0.341,0.593,0.743l-4.157,7.234   l6.884,4.714c0.382,0.262,0.247,0.857-0.212,0.927l-8.248,1.26l0.607,8.321c0.034,0.462-0.516,0.727-0.856,0.412l-6.128-5.663   l-6.128,5.663c-0.34,0.315-0.89,0.05-0.856-0.412l0.607-8.321l-8.248-1.26c-0.458-0.07-0.594-0.665-0.212-0.927l6.884-4.714   l-4.157-7.234c-0.231-0.402,0.149-0.879,0.593-0.743l7.978,2.443l3.064-7.761C99.847,438.697,100.457,438.697,100.627,439.128z"/>
        <path style="fill:#F5F5F5;"
              d="M123.462,334.572l2.139,6.413l6.76,0.052c0.524,0.004,0.741,0.672,0.32,0.984l-5.438,4.016   l2.039,6.446c0.158,0.499-0.411,0.912-0.837,0.608l-5.5-3.931l-5.5,3.931c-0.426,0.305-0.995-0.109-0.837-0.608l2.039-6.446   l-5.438-4.016c-0.421-0.311-0.204-0.98,0.32-0.984l6.76-0.052l2.139-6.413C122.594,334.076,123.297,334.076,123.462,334.572z"/>
</g>
    <path style="fill:#73AF00;"
          d="M212.115,224.183c-3.025-0.706-6.065,7.076-2.696,9.772c3.37,2.696,9.435,7.75,5.728,10.783  s-5.054,3.37-5.728,7.076c-0.674,3.706,0,4.38-3.033,6.065s-10.109,5.054-7.076,8.424s7.076,1.348,9.772-4.043  c0,0,18.869-0.674,19.543,0.674c0.674,1.348,2.359,6.402,6.402,5.054c4.043-1.348,4.043-1.348,4.043-1.348s2.359-1.011,4.043,1.011  c1.685,2.022,5.728,2.696,10.446,2.696c4.717,0,8.761,2.696,8.424,9.098c-0.216,4.101-1.261,12.628-1.985,18.227  c-0.387,2.998,1.669,5.757,4.651,6.254l8.628,1.438c2.269,0.378,4.379-1.242,4.58-3.534c0.405-4.61,0.993-11.363,0.973-11.602  c-0.194-2.422,4.717-14.826,4.38-20.554s-0.337-5.728-0.337-5.728s5.054-0.674,7.076-4.043c2.022-3.37,6.402-11.793,15.163-14.826  l2.359-5.728c0,0-6.739-3.033-5.391-5.054c1.348-2.022,2.022-7.413,1.011-11.793c-1.011-4.38-1.348-10.446-1.348-10.446  s-2.402-1.015-2.91,0.381s-1.015,2.157-2.283,1.903c-1.269-0.254-3.171-0.381-3.679-1.522c-0.507-1.142-1.903-2.283-3.171-1.649  c-1.269,0.634-3.425,9.133-6.47,10.021c0,0-0.254-3.679-2.156-2.918s-1.776,2.537-2.03,5.708s-21.565,24.61-40.213,18.901  c0,0-2.03-4.059-6.216-3.679c-4.186,0.381-8.245,0.254-10.656-2.664S215.714,225.023,212.115,224.183z"/>
    <path style="fill:#FFE15A;"
          d="M305.597,180.721c4.024,4.276,48.24,16.316,92.932-7.094s71.295-30.15,71.295-30.15  s0.355-6.03,5.853-6.917c5.498-0.887,2.838-3.192,1.419-4.966s-8.336-6.562-17.735-2.483c0,0-10.937,0.414-12.592-14.72  s-2.365-30.504-6.148-37.126c-3.784-6.621-34.997-39.727-38.781-37.126s9.459,35.47,21.755,47.057c0,0,2.838,20.336-0.709,21.282  s-23.174-17.026-58.171-21.282c0,0,14.898,20.336,33.106,28.849s23.174,16.316,22.701,19.627  c-0.473,3.311-6.621,19.154-16.789,26.484c-10.168,7.331-35.707,27.194-93.642,16.789  C310.09,178.947,303.705,178.711,305.597,180.721z"/>
    <g>
</g>
    <g>
</g>
    <g>
</g>
    <g>
</g>
    <g>
</g>
    <g>
</g>
    <g>
</g>
    <g>
</g>
    <g>
</g>
    <g>
</g>
    <g>
</g>
    <g>
</g>
    <g>
</g>
    <g>
</g>
    <g>
</g>
</svg>
