<?xml version="1.0" encoding="iso-8859-1"?>
<!-- Generator: Adobe Illustrator 19.0.0, SVG Export Plug-In . SVG Version: 6.00 Build 0)  -->
<svg xmlns="http://www.w3.org/2000/svg" xmlns:xlink="http://www.w3.org/1999/xlink" version="1.1" id="Layer_1" x="0px"
     y="0px" viewBox="0 0 512 512" style="enable-background:new 0 0 512 512;" xml:space="preserve">
<rect style="fill:#FF4B55;" width="512" height="512"/>
    <polygon style="fill:#73AF00;"
             points="512,61.995 256,229.619 0,61.745 0,114.657 215.735,256 0,397.343 0,450.245 256,282.382   512,450.495 512,397.343 296.266,256 512,114.657 "/>
    <polygon style="fill:#F5F5F5;"
             points="512,233.931 278.069,233.931 278.069,0 233.931,0 233.931,233.931 0,233.931 0,278.069   233.931,278.069 233.931,512 278.069,512 278.069,278.069 512,278.069 "/>
    <g>
</g>
    <g>
</g>
    <g>
</g>
    <g>
</g>
    <g>
</g>
    <g>
</g>
    <g>
</g>
    <g>
</g>
    <g>
</g>
    <g>
</g>
    <g>
</g>
    <g>
</g>
    <g>
</g>
    <g>
</g>
    <g>
</g>
</svg>
