<?xml version="1.0" encoding="iso-8859-1"?>
<!-- Generator: Adobe Illustrator 19.0.0, SVG Export Plug-In . SVG Version: 6.00 Build 0)  -->
<svg xmlns="http://www.w3.org/2000/svg" xmlns:xlink="http://www.w3.org/1999/xlink" version="1.1" id="Layer_1" x="0px"
     y="0px" viewBox="0 0 512 512" style="enable-background:new 0 0 512 512;" xml:space="preserve">
<rect style="fill:#73AF00;" width="512" height="170.78"/>
    <path style="fill:#FF4B55;"
          d="M511.861,512H0.139C0.062,512,0,511.938,0,511.861V341.218h512v170.643  C512,511.938,511.938,512,511.861,512z"/>
    <g>
	<rect y="170.61" style="fill:#F5F5F5;" width="512" height="170.78"/>
        <path style="fill:#F5F5F5;"
              d="M9.173,141.666v-0.233c0-1.171-0.95-2.121-2.121-2.121H0v4.475h7.052   C8.224,143.787,9.173,142.837,9.173,141.666z"/>
        <path style="fill:#F5F5F5;"
              d="M9.173,159.45v-0.122c0-1.171-0.95-2.121-2.121-2.121H2.57c-1.171,0-2.121-0.95-2.121-2.121v-0.23   c0-1.171,0.95-2.121,2.121-2.121h8.789c1.171,0,2.121,0.95,2.121,2.121v4.594c0,1.171,0.95,2.121,2.121,2.121h17.68   c1.171,0,2.121-0.95,2.121-2.121v-18.018c0-1.171-0.95-2.121-2.121-2.121h-0.119c-1.171,0-2.121,0.95-2.121,2.121v13.654   c0,1.171-0.95,2.121-2.121,2.121h-0.176c-1.171,0-2.121-0.95-2.121-2.121v-13.654c0-1.171-0.95-2.121-2.121-2.121h-0.064   c-1.171,0-2.121,0.95-2.121,2.121v13.654c0,1.171-0.95,2.121-2.121,2.121H20.02c-1.171,0-2.121-0.95-2.121-2.121v-13.654   c0-1.171-0.95-2.121-2.121-2.121h-0.176c-1.171,0-2.121,0.95-2.121,2.121v4.706c0,1.171-0.95,2.121-2.121,2.121H0v13.312h7.052   C8.224,161.571,9.173,160.622,9.173,159.45z"/>
        <path style="fill:#F5F5F5;"
              d="M120.636,139.311h-0.119c-1.171,0-2.121,0.95-2.121,2.121v13.654c0,1.171-0.95,2.121-2.121,2.121   h-0.064c-1.171,0-2.121-0.95-2.121-2.121v-13.654c0-1.171-0.95-2.121-2.121-2.121h-0.176c-1.171,0-2.121,0.95-2.121,2.121v13.654   c0,1.171-0.95,2.121-2.121,2.121h-0.176c-1.171,0-2.121-0.95-2.121-2.121v-13.654c0-1.171-0.95-2.121-2.121-2.121h-0.122   c-1.171,0-2.121,0.95-2.121,2.121v4.706c0,1.171-0.95,2.121-2.121,2.121H85.565c-1.171,0-2.121,0.95-2.121,2.121v9.07   c0,1.171,0.95,2.121,2.121,2.121h8.901c1.171,0,2.121-0.95,2.121-2.121v-0.122c0-1.171-0.95-2.121-2.121-2.121h-4.54   c-1.171,0-2.121-0.95-2.121-2.121v-0.23c0-1.171,0.95-2.121,2.121-2.121h8.844c1.171,0,2.121,0.95,2.121,2.121v4.594   c0,1.171,0.95,2.121,2.121,2.121h17.625c1.171,0,2.121-0.95,2.121-2.121v-18.018C122.758,140.261,121.808,139.311,120.636,139.311z   "/>
        <path style="fill:#F5F5F5;"
              d="M50.73,161.571c1.171,0,2.121-0.95,2.121-2.121v-0.122c0-1.171-0.95-2.121-2.121-2.121h-0.119   c-1.171,0-2.121,0.95-2.121,2.121v0.122c0,1.171,0.95,2.121,2.121,2.121H50.73z"/>
        <path style="fill:#F5F5F5;"
              d="M41.887,143.787h52.579c1.171,0,2.121-0.95,2.121-2.121v-0.233c0-1.171-0.95-2.121-2.121-2.121   H41.887c-1.171,0-2.121,0.95-2.121,2.121v0.233C39.766,142.837,40.715,143.787,41.887,143.787z"/>
        <path style="fill:#F5F5F5;"
              d="M76.959,148.259h-8.843c-1.171,0-2.121,0.95-2.121,2.121v0.233c0,1.171,0.95,2.121,2.121,2.121   h4.483c1.171,0,2.121,0.95,2.121,2.121v0.23c0,1.171-0.95,2.121-2.121,2.121h-8.901c-1.171,0-2.121-0.95-2.121-2.121v-4.706   c0-1.171-0.95-2.121-2.121-2.121H41.887c-1.171,0-2.121,0.95-2.121,2.121v9.07c0,1.171,0.95,2.121,2.121,2.121h0.119   c1.171,0,2.121-0.95,2.121-2.121v-4.594c0-1.171,0.95-2.121,2.121-2.121h8.846c1.171,0,2.121,0.95,2.121,2.121v4.594   c0,1.171,0.95,2.121,2.121,2.121h17.623c1.171,0,2.121-0.95,2.121-2.121v-9.07C79.08,149.209,78.13,148.259,76.959,148.259z"/>
        <path style="fill:#F5F5F5;"
              d="M138.086,161.571c1.171,0,2.121-0.95,2.121-2.121v-0.122c0-1.171-0.95-2.121-2.121-2.121h-0.119   c-1.171,0-2.121,0.95-2.121,2.121v0.122c0,1.171,0.95,2.121,2.121,2.121H138.086z"/>
        <path style="fill:#F5F5F5;"
              d="M129.242,143.787h52.521c1.171,0,2.121-0.95,2.121-2.121v-0.233c0-1.171-0.95-2.121-2.121-2.121   h-52.521c-1.171,0-2.121,0.95-2.121,2.121v0.233C127.121,142.837,128.071,143.787,129.242,143.787z"/>
        <path style="fill:#F5F5F5;"
              d="M207.992,139.311h-0.119c-1.171,0-2.121,0.95-2.121,2.121v13.654c0,1.171-0.95,2.121-2.121,2.121   h-0.122c-1.171,0-2.121-0.95-2.121-2.121v-13.654c0-1.171-0.95-2.121-2.121-2.121h-0.176c-1.171,0-2.121,0.95-2.121,2.121v13.654   c0,1.171-0.95,2.121-2.121,2.121h-0.064c-1.171,0-2.121-0.95-2.121-2.121v-13.654c0-1.171-0.95-2.121-2.121-2.121h-0.119   c-1.171,0-2.121,0.95-2.121,2.121v4.706c0,1.171-0.95,2.121-2.121,2.121h-13.319c-1.171,0-2.121,0.95-2.121,2.121v9.07   c0,1.171,0.95,2.121,2.121,2.121h8.901c1.171,0,2.121-0.95,2.121-2.121v-0.122c0-1.171-0.95-2.121-2.121-2.121h-4.483   c-1.171,0-2.121-0.95-2.121-2.121v-0.23c0-1.171,0.95-2.121,2.121-2.121h8.901c1.171,0,2.121,0.95,2.121,2.121v4.594   c0,1.171,0.95,2.121,2.121,2.121h17.568c1.171,0,2.121-0.95,2.121-2.121v-18.018C210.113,140.261,209.163,139.311,207.992,139.311z   "/>
        <path style="fill:#F5F5F5;"
              d="M164.314,148.259h-8.901c-1.171,0-2.121,0.95-2.121,2.121v0.233c0,1.171,0.95,2.121,2.121,2.121   h4.483c1.171,0,2.121,0.95,2.121,2.121v0.23c0,1.171-0.95,2.121-2.121,2.121h-8.843c-1.171,0-2.121-0.95-2.121-2.121v-4.706   c0-1.171-0.95-2.121-2.121-2.121h-17.568c-1.171,0-2.121,0.95-2.121,2.121v9.07c0,1.171,0.95,2.121,2.121,2.121h0.119   c1.171,0,2.121-0.95,2.121-2.121v-4.594c0-1.171,0.95-2.121,2.121-2.121h8.843c1.171,0,2.121,0.95,2.121,2.121v4.594   c0,1.171,0.95,2.121,2.121,2.121h17.625c1.171,0,2.121-0.95,2.121-2.121v-9.07C166.435,149.209,165.486,148.259,164.314,148.259z"/>
        <path style="fill:#F5F5F5;"
              d="M295.348,139.311h-0.122c-1.171,0-2.121,0.95-2.121,2.121v13.654c0,1.171-0.95,2.121-2.121,2.121   h-0.119c-1.171,0-2.121-0.95-2.121-2.121v-13.654c0-1.171-0.95-2.121-2.121-2.121h-0.119c-1.171,0-2.121,0.95-2.121,2.121v13.654   c0,1.171-0.95,2.121-2.121,2.121h-0.122c-1.171,0-2.121-0.95-2.121-2.121v-13.654c0-1.171-0.95-2.121-2.121-2.121h-0.119   c-1.171,0-2.121,0.95-2.121,2.121v4.706c0,1.171-0.95,2.121-2.121,2.121h-13.265c-1.171,0-2.121,0.95-2.121,2.121v9.07   c0,1.171,0.95,2.121,2.121,2.121h8.901c1.171,0,2.121-0.95,2.121-2.121v-0.122c0-1.171-0.95-2.121-2.121-2.121h-4.537   c-1.171,0-2.121-0.95-2.121-2.121v-0.23c0-1.171,0.95-2.121,2.121-2.121h8.901c1.171,0,2.121,0.95,2.121,2.121v4.594   c0,1.171,0.95,2.121,2.121,2.121h17.568c1.171,0,2.121-0.95,2.121-2.121v-18.018C297.469,140.261,296.519,139.311,295.348,139.311z   "/>
        <path style="fill:#F5F5F5;"
              d="M251.67,148.259h-8.901c-1.171,0-2.121,0.95-2.121,2.121v0.233c0,1.171,0.95,2.121,2.121,2.121   h4.537c1.171,0,2.121,0.95,2.121,2.121v0.23c0,1.171-0.95,2.121-2.121,2.121h-8.844c-1.171,0-2.121-0.95-2.121-2.121v-4.706   c0-1.171-0.95-2.121-2.121-2.121h-17.625c-1.171,0-2.121,0.95-2.121,2.121v9.07c0,1.171,0.95,2.121,2.121,2.121h0.122   c1.171,0,2.121-0.95,2.121-2.121v-4.594c0-1.171,0.95-2.121,2.121-2.121h8.843c1.171,0,2.121,0.95,2.121,2.121v4.594   c0,1.171,0.95,2.121,2.121,2.121h17.625c1.171,0,2.121-0.95,2.121-2.121v-9.07C253.791,149.209,252.841,148.259,251.67,148.259z"/>
        <path style="fill:#F5F5F5;"
              d="M216.595,143.787h52.579c1.171,0,2.121-0.95,2.121-2.121v-0.233c0-1.171-0.95-2.121-2.121-2.121   h-52.579c-1.171,0-2.121,0.95-2.121,2.121v0.233C214.474,142.837,215.424,143.787,216.595,143.787z"/>
        <path style="fill:#F5F5F5;"
              d="M225.441,161.571c1.171,0,2.121-0.95,2.121-2.121v-0.122c0-1.171-0.95-2.121-2.121-2.121h-0.064   c-1.171,0-2.121,0.95-2.121,2.121v0.122c0,1.171,0.95,2.121,2.121,2.121H225.441z"/>
        <path style="fill:#F5F5F5;"
              d="M339.025,148.259h-8.846c-1.171,0-2.121,0.95-2.121,2.121v0.233c0,1.171,0.95,2.121,2.121,2.121   h4.428c1.171,0,2.121,0.95,2.121,2.121v0.23c0,1.171-0.95,2.121-2.121,2.121h-8.789c-1.171,0-2.121-0.95-2.121-2.121v-4.706   c0-1.171-0.95-2.121-2.121-2.121h-17.625c-1.171,0-2.121,0.95-2.121,2.121v9.07c0,1.171,0.95,2.121,2.121,2.121h0.122   c1.171,0,2.121-0.95,2.121-2.121v-4.594c0-1.171,0.95-2.121,2.121-2.121h8.844c1.171,0,2.121,0.95,2.121,2.121v4.594   c0,1.171,0.95,2.121,2.121,2.121h17.625c1.171,0,2.121-0.95,2.121-2.121v-9.07C341.147,149.209,340.197,148.259,339.025,148.259z"/>
        <path style="fill:#F5F5F5;"
              d="M382.703,139.311h-0.122c-1.171,0-2.121,0.95-2.121,2.121v13.654c0,1.171-0.95,2.121-2.121,2.121   h-0.119c-1.171,0-2.121-0.95-2.121-2.121v-13.654c0-1.171-0.95-2.121-2.121-2.121h-0.122c-1.171,0-2.121,0.95-2.121,2.121v13.654   c0,1.171-0.95,2.121-2.121,2.121h-0.119c-1.171,0-2.121-0.95-2.121-2.121v-13.654c0-1.171-0.95-2.121-2.121-2.121h-0.122   c-1.171,0-2.121,0.95-2.121,2.121v4.706c0,1.171-0.95,2.121-2.121,2.121h-13.204c-1.171,0-2.121,0.95-2.121,2.121v9.07   c0,1.171,0.95,2.121,2.121,2.121h8.843c1.171,0,2.121-0.95,2.121-2.121v-0.122c0-1.171-0.95-2.121-2.121-2.121h-4.537   c-1.171,0-2.121-0.95-2.121-2.121v-0.23c0-1.171,0.95-2.121,2.121-2.121h8.898c1.171,0,2.121,0.95,2.121,2.121v4.594   c0,1.171,0.95,2.121,2.121,2.121h17.571c1.171,0,2.121-0.95,2.121-2.121v-18.018C384.824,140.261,383.875,139.311,382.703,139.311z   "/>
        <path style="fill:#F5F5F5;"
              d="M312.797,161.571c1.171,0,2.121-0.95,2.121-2.121v-0.122c0-1.171-0.95-2.121-2.121-2.121h-0.064   c-1.171,0-2.121,0.95-2.121,2.121v0.122c0,1.171,0.95,2.121,2.121,2.121H312.797z"/>
        <path style="fill:#F5F5F5;"
              d="M303.951,143.787h52.579c1.171,0,2.121-0.95,2.121-2.121v-0.233c0-1.171-0.95-2.121-2.121-2.121   h-52.579c-1.171,0-2.121,0.95-2.121,2.121v0.233C301.83,142.837,302.779,143.787,303.951,143.787z"/>
        <path style="fill:#F5F5F5;"
              d="M400.207,161.571c1.171,0,2.121-0.95,2.121-2.121v-0.122c0-1.171-0.95-2.121-2.121-2.121h-0.176   c-1.171,0-2.121,0.95-2.121,2.121v0.122c0,1.171,0.95,2.121,2.121,2.121H400.207z"/>
        <path style="fill:#F5F5F5;"
              d="M391.306,143.787h52.578c1.171,0,2.121-0.95,2.121-2.121v-0.233c0-1.171-0.95-2.121-2.121-2.121   h-52.578c-1.171,0-2.121,0.95-2.121,2.121v0.233C389.185,142.837,390.135,143.787,391.306,143.787z"/>
        <path style="fill:#F5F5F5;"
              d="M470.056,139.311h-0.062c-1.171,0-2.121,0.95-2.121,2.121v13.654c0,1.171-0.95,2.121-2.121,2.121   h-0.176c-1.171,0-2.121-0.95-2.121-2.121v-13.654c0-1.171-0.95-2.121-2.121-2.121h-0.122c-1.171,0-2.121,0.95-2.121,2.121v13.654   c0,1.171-0.95,2.121-2.121,2.121h-0.119c-1.171,0-2.121-0.95-2.121-2.121v-13.654c0-1.171-0.95-2.121-2.121-2.121h-0.122   c-1.171,0-2.121,0.95-2.121,2.121v4.706c0,1.171-0.95,2.121-2.121,2.121h-13.204c-1.171,0-2.121,0.95-2.121,2.121v9.07   c0,1.171,0.95,2.121,2.121,2.121h8.843c1.171,0,2.121-0.95,2.121-2.121v-0.122c0-1.171-0.95-2.121-2.121-2.121h-4.428   c-1.171,0-2.121-0.95-2.121-2.121v-0.23c0-1.171,0.95-2.121,2.121-2.121h8.789c1.171,0,2.121,0.95,2.121,2.121v4.594   c0,1.171,0.95,2.121,2.121,2.121h17.568c1.171,0,2.121-0.95,2.121-2.121v-18.018C472.177,140.261,471.227,139.311,470.056,139.311z   "/>
        <path style="fill:#F5F5F5;"
              d="M426.381,148.259h-8.846c-1.171,0-2.121,0.95-2.121,2.121v0.233c0,1.171,0.95,2.121,2.121,2.121   h4.54c1.171,0,2.121,0.95,2.121,2.121v0.23c0,1.171-0.95,2.121-2.121,2.121h-8.958c-1.171,0-2.121-0.95-2.121-2.121v-4.706   c0-1.171-0.95-2.121-2.121-2.121h-17.568c-1.171,0-2.121,0.95-2.121,2.121v9.07c0,1.171,0.95,2.121,2.121,2.121h0.122   c1.171,0,2.121-0.95,2.121-2.121v-4.594c0-1.171,0.95-2.121,2.121-2.121h8.898c1.171,0,2.121,0.95,2.121,2.121v4.594   c0,1.171,0.95,2.121,2.121,2.121h17.571c1.171,0,2.121-0.95,2.121-2.121v-9.07C428.502,149.209,427.552,148.259,426.381,148.259z"/>
        <path style="fill:#F5F5F5;"
              d="M502.827,150.38v0.233c0,1.171,0.95,2.121,2.121,2.121h4.48c1.171,0,2.121,0.95,2.121,2.121v0.23   c0,1.171-0.95,2.121-2.121,2.121h-8.898c-1.171,0-2.121-0.95-2.121-2.121v-4.706c0-1.171-0.95-2.121-2.121-2.121h-17.571   c-1.171,0-2.121,0.95-2.121,2.121v9.07c0,1.171,0.95,2.121,2.121,2.121h0.064c1.171,0,2.121-0.95,2.121-2.121v-4.594   c0-1.171,0.95-2.121,2.121-2.121h8.846c1.171,0,2.121,0.95,2.121,2.121v4.594c0,1.171,0.95,2.121,2.121,2.121H512v-13.312h-7.052   C503.776,148.259,502.827,149.209,502.827,150.38z"/>
        <path style="fill:#F5F5F5;"
              d="M476.595,141.432v0.233c0,1.171,0.95,2.121,2.121,2.121H512v-4.475h-33.284   C477.545,139.311,476.595,140.261,476.595,141.432z"/>
        <path style="fill:#F5F5F5;"
              d="M487.441,161.571h0.122c1.171,0,2.121-0.95,2.121-2.121v-0.122c0-1.171-0.95-2.121-2.121-2.121   h-0.122c-1.171,0-2.121,0.95-2.121,2.121v0.122C485.32,160.622,486.27,161.571,487.441,161.571z"/>
        <path style="fill:#F5F5F5;"
              d="M35.402,172.982v-4.706c0-1.171-0.95-2.121-2.121-2.121H0v8.948h33.281   C34.452,175.103,35.402,174.154,35.402,172.982z"/>
        <path style="fill:#F5F5F5;"
              d="M76.959,166.155H41.887c-1.171,0-2.121,0.95-2.121,2.121v4.706c0,1.171,0.95,2.121,2.121,2.121   h35.072c1.171,0,2.121-0.95,2.121-2.121v-4.706C79.08,167.105,78.13,166.155,76.959,166.155z"/>
        <path style="fill:#F5F5F5;"
              d="M120.636,166.155H85.565c-1.171,0-2.121,0.95-2.121,2.121v4.706c0,1.171,0.95,2.121,2.121,2.121   h35.072c1.171,0,2.121-0.95,2.121-2.121v-4.706C122.758,167.105,121.808,166.155,120.636,166.155z"/>
        <path style="fill:#F5F5F5;"
              d="M164.314,166.155h-35.072c-1.171,0-2.121,0.95-2.121,2.121v4.706c0,1.171,0.95,2.121,2.121,2.121   h35.072c1.171,0,2.121-0.95,2.121-2.121v-4.706C166.435,167.105,165.486,166.155,164.314,166.155z"/>
        <path style="fill:#F5F5F5;"
              d="M207.992,166.155h-35.129c-1.171,0-2.121,0.95-2.121,2.121v4.706c0,1.171,0.95,2.121,2.121,2.121   h35.129c1.171,0,2.121-0.95,2.121-2.121v-4.706C210.113,167.105,209.163,166.155,207.992,166.155z"/>
        <path style="fill:#F5F5F5;"
              d="M251.67,166.155h-35.075c-1.171,0-2.121,0.95-2.121,2.121v4.706c0,1.171,0.95,2.121,2.121,2.121   h35.075c1.171,0,2.121-0.95,2.121-2.121v-4.706C253.791,167.105,252.841,166.155,251.67,166.155z"/>
        <path style="fill:#F5F5F5;"
              d="M295.348,166.155h-35.075c-1.171,0-2.121,0.95-2.121,2.121v4.706c0,1.171,0.95,2.121,2.121,2.121   h35.075c1.171,0,2.121-0.95,2.121-2.121v-4.706C297.469,167.105,296.519,166.155,295.348,166.155z"/>
        <path style="fill:#F5F5F5;"
              d="M382.703,166.155h-35.017c-1.171,0-2.121,0.95-2.121,2.121v4.706c0,1.171,0.95,2.121,2.121,2.121   h35.017c1.171,0,2.121-0.95,2.121-2.121v-4.706C384.824,167.105,383.875,166.155,382.703,166.155z"/>
        <path style="fill:#F5F5F5;"
              d="M339.025,166.155H303.95c-1.171,0-2.121,0.95-2.121,2.121v4.706c0,1.171,0.95,2.121,2.121,2.121   h35.075c1.171,0,2.121-0.95,2.121-2.121v-4.706C341.147,167.105,340.197,166.155,339.025,166.155z"/>
        <path style="fill:#F5F5F5;"
              d="M426.381,166.155h-35.075c-1.171,0-2.121,0.95-2.121,2.121v4.706c0,1.171,0.95,2.121,2.121,2.121   h35.075c1.171,0,2.121-0.95,2.121-2.121v-4.706C428.502,167.105,427.552,166.155,426.381,166.155z"/>
        <path style="fill:#F5F5F5;"
              d="M470.056,166.155h-35.015c-1.171,0-2.121,0.95-2.121,2.121v4.706c0,1.171,0.95,2.121,2.121,2.121   h35.015c1.171,0,2.121-0.95,2.121-2.121v-4.706C472.177,167.105,471.227,166.155,470.056,166.155z"/>
        <path style="fill:#F5F5F5;"
              d="M476.595,168.276v4.706c0,1.171,0.95,2.121,2.121,2.121H512v-8.948h-33.284   C477.545,166.155,476.595,167.105,476.595,168.276z"/>
        <path style="fill:#F5F5F5;"
              d="M502.827,352.55v0.122c0,1.171,0.95,2.121,2.121,2.121h4.483c1.171,0,2.121,0.95,2.121,2.121v0.23   c0,1.171-0.95,2.121-2.121,2.121h-8.789c-1.171,0-2.121-0.95-2.121-2.121v-4.594c0-1.171-0.95-2.121-2.121-2.121h-17.68   c-1.171,0-2.121,0.95-2.121,2.121v18.018c0,1.171,0.95,2.121,2.121,2.121h0.119c1.171,0,2.121-0.95,2.121-2.121v-13.654   c0-1.171,0.95-2.121,2.121-2.121h0.176c1.171,0,2.121,0.95,2.121,2.121v13.654c0,1.171,0.95,2.121,2.121,2.121h0.064   c1.171,0,2.121-0.95,2.121-2.121v-13.654c0-1.171,0.95-2.121,2.121-2.121h0.176c1.171,0,2.121,0.95,2.121,2.121v13.654   c0,1.171,0.95,2.121,2.121,2.121h0.176c1.171,0,2.121-0.95,2.121-2.121v-4.706c0-1.171,0.95-2.121,2.121-2.121H512v-13.312h-7.052   C503.776,350.429,502.827,351.378,502.827,352.55z"/>
        <path style="fill:#F5F5F5;"
              d="M502.827,370.334v0.233c0,1.171,0.95,2.121,2.121,2.121H512v-4.475h-7.052   C503.776,368.213,502.827,369.163,502.827,370.334z"/>
        <path style="fill:#F5F5F5;"
              d="M461.389,354.793c1.171,0,2.121-0.95,2.121-2.121v-0.122c0-1.171-0.95-2.121-2.121-2.121h-0.119   c-1.171,0-2.121,0.95-2.121,2.121v0.122c0,1.171,0.95,2.121,2.121,2.121H461.389z"/>
        <path style="fill:#F5F5F5;"
              d="M428.557,361.62v-9.07c0-1.171-0.95-2.121-2.121-2.121h-8.901c-1.171,0-2.121,0.95-2.121,2.121   v0.122c0,1.171,0.95,2.121,2.121,2.121h4.54c1.171,0,2.121,0.95,2.121,2.121v0.23c0,1.171-0.95,2.121-2.121,2.121h-8.843   c-1.171,0-2.121-0.95-2.121-2.121v-4.594c0-1.171-0.95-2.121-2.121-2.121h-17.625c-1.171,0-2.121,0.95-2.121,2.121v18.018   c0,1.171,0.95,2.121,2.121,2.121h0.119c1.171,0,2.121-0.95,2.121-2.121v-13.654c0-1.171,0.95-2.121,2.121-2.121h0.064   c1.171,0,2.121,0.95,2.121,2.121v13.654c0,1.171,0.95,2.121,2.121,2.121h0.176c1.171,0,2.121-0.95,2.121-2.121v-13.654   c0-1.171,0.95-2.121,2.121-2.121h0.176c1.171,0,2.121,0.95,2.121,2.121v13.654c0,1.171,0.95,2.121,2.121,2.121h0.122   c1.171,0,2.121-0.95,2.121-2.121v-4.706c0-1.171,0.95-2.121,2.121-2.121h13.204C427.607,363.741,428.557,362.791,428.557,361.62z"/>
        <path style="fill:#F5F5F5;"
              d="M470.113,368.213h-52.579c-1.171,0-2.121,0.95-2.121,2.121v0.233c0,1.171,0.95,2.121,2.121,2.121   h52.579c1.171,0,2.121-0.95,2.121-2.121v-0.233C472.234,369.163,471.285,368.213,470.113,368.213z"/>
        <path style="fill:#F5F5F5;"
              d="M470.113,350.429h-0.119c-1.171,0-2.121,0.95-2.121,2.121v4.594c0,1.171-0.95,2.121-2.121,2.121   h-8.846c-1.171,0-2.121-0.95-2.121-2.121v-4.594c0-1.171-0.95-2.121-2.121-2.121h-17.623c-1.171,0-2.121,0.95-2.121,2.121v9.07   c0,1.171,0.95,2.121,2.121,2.121h8.843c1.171,0,2.121-0.95,2.121-2.121v-0.233c0-1.171-0.95-2.121-2.121-2.121h-4.483   c-1.171,0-2.121-0.95-2.121-2.121v-0.23c0-1.171,0.95-2.121,2.121-2.121h8.901c1.171,0,2.121,0.95,2.121,2.121v4.706   c0,1.171,0.95,2.121,2.121,2.121h17.568c1.171,0,2.121-0.95,2.121-2.121v-9.07C472.234,351.378,471.285,350.429,470.113,350.429z"/>
        <path style="fill:#F5F5F5;"
              d="M341.258,361.62v-9.07c0-1.171-0.95-2.121-2.121-2.121h-8.901c-1.171,0-2.121,0.95-2.121,2.121   v0.122c0,1.171,0.95,2.121,2.121,2.121h4.483c1.171,0,2.121,0.95,2.121,2.121v0.23c0,1.171-0.95,2.121-2.121,2.121h-8.901   c-1.171,0-2.121-0.95-2.121-2.121v-4.594c0-1.171-0.95-2.121-2.121-2.121h-17.568c-1.171,0-2.121,0.95-2.121,2.121v18.018   c0,1.171,0.95,2.121,2.121,2.121h0.119c1.171,0,2.121-0.95,2.121-2.121v-13.654c0-1.171,0.95-2.121,2.121-2.121h0.122   c1.171,0,2.121,0.95,2.121,2.121v13.654c0,1.171,0.95,2.121,2.121,2.121h0.176c1.171,0,2.121-0.95,2.121-2.121v-13.654   c0-1.171,0.95-2.121,2.121-2.121h0.064c1.171,0,2.121,0.95,2.121,2.121v13.654c0,1.171,0.95,2.121,2.121,2.121h0.119   c1.171,0,2.121-0.95,2.121-2.121v-4.706c0-1.171,0.95-2.121,2.121-2.121h13.319C340.309,363.741,341.258,362.791,341.258,361.62z"/>
        <path style="fill:#F5F5F5;"
              d="M382.758,368.213h-52.521c-1.171,0-2.121,0.95-2.121,2.121v0.233c0,1.171,0.95,2.121,2.121,2.121   h52.521c1.171,0,2.121-0.95,2.121-2.121v-0.233C384.879,369.163,383.929,368.213,382.758,368.213z"/>
        <path style="fill:#F5F5F5;"
              d="M374.033,354.793c1.171,0,2.121-0.95,2.121-2.121v-0.122c0-1.171-0.95-2.121-2.121-2.121h-0.119   c-1.171,0-2.121,0.95-2.121,2.121v0.122c0,1.171,0.95,2.121,2.121,2.121H374.033z"/>
        <path style="fill:#F5F5F5;"
              d="M382.758,350.429h-0.119c-1.171,0-2.121,0.95-2.121,2.121v4.594c0,1.171-0.95,2.121-2.121,2.121   h-8.844c-1.171,0-2.121-0.95-2.121-2.121v-4.594c0-1.171-0.95-2.121-2.121-2.121h-17.625c-1.171,0-2.121,0.95-2.121,2.121v9.07   c0,1.171,0.95,2.121,2.121,2.121h8.901c1.171,0,2.121-0.95,2.121-2.121v-0.233c0-1.171-0.95-2.121-2.121-2.121h-4.483   c-1.171,0-2.121-0.95-2.121-2.121v-0.23c0-1.171,0.95-2.121,2.121-2.121h8.843c1.171,0,2.121,0.95,2.121,2.121v4.706   c0,1.171,0.95,2.121,2.121,2.121h17.568c1.171,0,2.121-0.95,2.121-2.121v-9.07C384.879,351.378,383.929,350.429,382.758,350.429z"/>
        <path style="fill:#F5F5F5;"
              d="M253.848,361.62v-9.07c0-1.171-0.95-2.121-2.121-2.121h-8.901c-1.171,0-2.121,0.95-2.121,2.121   v0.122c0,1.171,0.95,2.121,2.121,2.121h4.537c1.171,0,2.121,0.95,2.121,2.121v0.23c0,1.171-0.95,2.121-2.121,2.121h-8.901   c-1.171,0-2.121-0.95-2.121-2.121v-4.594c0-1.171-0.95-2.121-2.121-2.121h-17.568c-1.171,0-2.121,0.95-2.121,2.121v18.018   c0,1.171,0.95,2.121,2.121,2.121h0.122c1.171,0,2.121-0.95,2.121-2.121v-13.654c0-1.171,0.95-2.121,2.121-2.121h0.119   c1.171,0,2.121,0.95,2.121,2.121v13.654c0,1.171,0.95,2.121,2.121,2.121h0.119c1.171,0,2.121-0.95,2.121-2.121v-13.654   c0-1.171,0.95-2.121,2.121-2.121h0.122c1.171,0,2.121,0.95,2.121,2.121v13.654c0,1.171,0.95,2.121,2.121,2.121h0.119   c1.171,0,2.121-0.95,2.121-2.121v-4.706c0-1.171,0.95-2.121,2.121-2.121h13.265C252.899,363.741,253.848,362.791,253.848,361.62z"/>
        <path style="fill:#F5F5F5;"
              d="M286.623,354.793c1.171,0,2.121-0.95,2.121-2.121v-0.122c0-1.171-0.95-2.121-2.121-2.121h-0.064   c-1.171,0-2.121,0.95-2.121,2.121v0.122c0,1.171,0.95,2.121,2.121,2.121H286.623z"/>
        <path style="fill:#F5F5F5;"
              d="M295.405,350.429h-0.122c-1.171,0-2.121,0.95-2.121,2.121v4.594c0,1.171-0.95,2.121-2.121,2.121   h-8.843c-1.171,0-2.121-0.95-2.121-2.121v-4.594c0-1.171-0.95-2.121-2.121-2.121H260.33c-1.171,0-2.121,0.95-2.121,2.121v9.07   c0,1.171,0.95,2.121,2.121,2.121h8.901c1.171,0,2.121-0.95,2.121-2.121v-0.233c0-1.171-0.95-2.121-2.121-2.121h-4.537   c-1.171,0-2.121-0.95-2.121-2.121v-0.23c0-1.171,0.95-2.121,2.121-2.121h8.844c1.171,0,2.121,0.95,2.121,2.121v4.706   c0,1.171,0.95,2.121,2.121,2.121h17.625c1.171,0,2.121-0.95,2.121-2.121v-9.07C297.526,351.378,296.576,350.429,295.405,350.429z"/>
        <path style="fill:#F5F5F5;"
              d="M295.405,368.213h-52.579c-1.171,0-2.121,0.95-2.121,2.121v0.233c0,1.171,0.95,2.121,2.121,2.121   h52.579c1.171,0,2.121-0.95,2.121-2.121v-0.233C297.526,369.163,296.576,368.213,295.405,368.213z"/>
        <path style="fill:#F5F5F5;"
              d="M208.049,350.429h-0.122c-1.171,0-2.121,0.95-2.121,2.121v4.594c0,1.171-0.95,2.121-2.121,2.121   h-8.844c-1.171,0-2.121-0.95-2.121-2.121v-4.594c0-1.171-0.95-2.121-2.121-2.121h-17.625c-1.171,0-2.121,0.95-2.121,2.121v9.07   c0,1.171,0.95,2.121,2.121,2.121h8.846c1.171,0,2.121-0.95,2.121-2.121v-0.233c0-1.171-0.95-2.121-2.121-2.121h-4.428   c-1.171,0-2.121-0.95-2.121-2.121v-0.23c0-1.171,0.95-2.121,2.121-2.121h8.789c1.171,0,2.121,0.95,2.121,2.121v4.706   c0,1.171,0.95,2.121,2.121,2.121h17.625c1.171,0,2.121-0.95,2.121-2.121v-9.07C210.17,351.378,209.221,350.429,208.049,350.429z"/>
        <path style="fill:#F5F5F5;"
              d="M199.267,354.793c1.171,0,2.121-0.95,2.121-2.121v-0.122c0-1.171-0.95-2.121-2.121-2.121h-0.064   c-1.171,0-2.121,0.95-2.121,2.121v0.122c0,1.171,0.95,2.121,2.121,2.121H199.267z"/>
        <path style="fill:#F5F5F5;"
              d="M208.049,368.213H155.47c-1.171,0-2.121,0.95-2.121,2.121v0.233c0,1.171,0.95,2.121,2.121,2.121   h52.579c1.171,0,2.121-0.95,2.121-2.121v-0.233C210.17,369.163,209.221,368.213,208.049,368.213z"/>
        <path style="fill:#F5F5F5;"
              d="M166.435,361.62v-9.07c0-1.171-0.95-2.121-2.121-2.121h-8.843c-1.171,0-2.121,0.95-2.121,2.121   v0.122c0,1.171,0.95,2.121,2.121,2.121h4.537c1.171,0,2.121,0.95,2.121,2.121v0.23c0,1.171-0.95,2.121-2.121,2.121h-8.898   c-1.171,0-2.121-0.95-2.121-2.121v-4.594c0-1.171-0.95-2.121-2.121-2.121h-17.571c-1.171,0-2.121,0.95-2.121,2.121v18.018   c0,1.171,0.95,2.121,2.121,2.121h0.122c1.171,0,2.121-0.95,2.121-2.121v-13.654c0-1.171,0.95-2.121,2.121-2.121h0.119   c1.171,0,2.121,0.95,2.121,2.121v13.654c0,1.171,0.95,2.121,2.121,2.121h0.122c1.171,0,2.121-0.95,2.121-2.121v-13.654   c0-1.171,0.95-2.121,2.121-2.121h0.119c1.171,0,2.121,0.95,2.121,2.121v13.654c0,1.171,0.95,2.121,2.121,2.121h0.122   c1.171,0,2.121-0.95,2.121-2.121v-4.706c0-1.171,0.95-2.121,2.121-2.121h13.204C165.486,363.741,166.435,362.791,166.435,361.62z"/>
        <path style="fill:#F5F5F5;"
              d="M111.969,354.793c1.171,0,2.121-0.95,2.121-2.121v-0.122c0-1.171-0.95-2.121-2.121-2.121h-0.176   c-1.171,0-2.121,0.95-2.121,2.121v0.122c0,1.171,0.95,2.121,2.121,2.121H111.969z"/>
        <path style="fill:#F5F5F5;"
              d="M120.694,350.429h-0.122c-1.171,0-2.121,0.95-2.121,2.121v4.594c0,1.171-0.95,2.121-2.121,2.121   h-8.898c-1.171,0-2.121-0.95-2.121-2.121v-4.594c0-1.171-0.95-2.121-2.121-2.121H85.619c-1.171,0-2.121,0.95-2.121,2.121v9.07   c0,1.171,0.95,2.121,2.121,2.121h8.846c1.171,0,2.121-0.95,2.121-2.121v-0.233c0-1.171-0.95-2.121-2.121-2.121h-4.54   c-1.171,0-2.121-0.95-2.121-2.121v-0.23c0-1.171,0.95-2.121,2.121-2.121h8.958c1.171,0,2.121,0.95,2.121,2.121v4.706   c0,1.171,0.95,2.121,2.121,2.121h17.568c1.171,0,2.121-0.95,2.121-2.121v-9.07C122.815,351.378,121.865,350.429,120.694,350.429z"/>
        <path style="fill:#F5F5F5;"
              d="M79.08,361.62v-9.07c0-1.171-0.95-2.121-2.121-2.121h-8.843c-1.171,0-2.121,0.95-2.121,2.121v0.122   c0,1.171,0.95,2.121,2.121,2.121h4.428c1.171,0,2.121,0.95,2.121,2.121v0.23c0,1.171-0.95,2.121-2.121,2.121h-8.789   c-1.171,0-2.121-0.95-2.121-2.121v-4.594c0-1.171-0.95-2.121-2.121-2.121H41.944c-1.171,0-2.121,0.95-2.121,2.121v18.018   c0,1.171,0.95,2.121,2.121,2.121h0.062c1.171,0,2.121-0.95,2.121-2.121v-13.654c0-1.171,0.95-2.121,2.121-2.121h0.176   c1.171,0,2.121,0.95,2.121,2.121v13.654c0,1.171,0.95,2.121,2.121,2.121h0.122c1.171,0,2.121-0.95,2.121-2.121v-13.654   c0-1.171,0.95-2.121,2.121-2.121h0.119c1.171,0,2.121,0.95,2.121,2.121v13.654c0,1.171,0.95,2.121,2.121,2.121h0.122   c1.171,0,2.121-0.95,2.121-2.121v-4.706c0-1.171,0.95-2.121,2.121-2.121h13.204C78.13,363.741,79.08,362.791,79.08,361.62z"/>
        <path style="fill:#F5F5F5;"
              d="M120.694,368.213H68.115c-1.171,0-2.121,0.95-2.121,2.121v0.233c0,1.171,0.95,2.121,2.121,2.121   h52.579c1.171,0,2.121-0.95,2.121-2.121v-0.233C122.815,369.163,121.865,368.213,120.694,368.213z"/>
        <path style="fill:#F5F5F5;"
              d="M9.173,361.62v-0.233c0-1.171-0.95-2.121-2.121-2.121h-4.48c-1.171,0-2.121-0.95-2.121-2.121v-0.23   c0-1.171,0.95-2.121,2.121-2.121h8.898c1.171,0,2.121,0.95,2.121,2.121v4.706c0,1.171,0.95,2.121,2.121,2.121h17.571   c1.171,0,2.121-0.95,2.121-2.121v-9.07c0-1.171-0.95-2.121-2.121-2.121h-0.064c-1.171,0-2.121,0.95-2.121,2.121v4.594   c0,1.171-0.95,2.121-2.121,2.121h-8.846c-1.171,0-2.121-0.95-2.121-2.121v-4.594c0-1.171-0.95-2.121-2.121-2.121H0v13.312h7.052   C8.224,363.741,9.173,362.791,9.173,361.62z"/>
        <path style="fill:#F5F5F5;"
              d="M35.405,370.568v-0.233c0-1.171-0.95-2.121-2.121-2.121H0v4.475h33.284   C34.455,372.689,35.405,371.739,35.405,370.568z"/>
        <path style="fill:#F5F5F5;"
              d="M24.559,350.429h-0.122c-1.171,0-2.121,0.95-2.121,2.121v0.122c0,1.171,0.95,2.121,2.121,2.121   h0.122c1.171,0,2.121-0.95,2.121-2.121v-0.122C26.68,351.378,25.73,350.429,24.559,350.429z"/>
        <path style="fill:#F5F5F5;"
              d="M476.598,339.018v4.706c0,1.171,0.95,2.121,2.121,2.121H512v-8.948h-33.281   C477.548,336.897,476.598,337.846,476.598,339.018z"/>
        <path style="fill:#F5F5F5;"
              d="M391.364,345.845h35.072c1.171,0,2.121-0.95,2.121-2.121v-4.706c0-1.171-0.95-2.121-2.121-2.121   h-35.072c-1.171,0-2.121,0.95-2.121,2.121v4.706C389.242,344.895,390.192,345.845,391.364,345.845z"/>
        <path style="fill:#F5F5F5;"
              d="M470.113,336.897h-35.072c-1.171,0-2.121,0.95-2.121,2.121v4.706c0,1.171,0.95,2.121,2.121,2.121   h35.072c1.171,0,2.121-0.95,2.121-2.121v-4.706C472.234,337.846,471.285,336.897,470.113,336.897z"/>
        <path style="fill:#F5F5F5;"
              d="M382.758,336.897h-35.072c-1.171,0-2.121,0.95-2.121,2.121v4.706c0,1.171,0.95,2.121,2.121,2.121   h35.072c1.171,0,2.121-0.95,2.121-2.121v-4.706C384.879,337.846,383.929,336.897,382.758,336.897z"/>
        <path style="fill:#F5F5F5;"
              d="M304.008,345.845h35.129c1.171,0,2.121-0.95,2.121-2.121v-4.706c0-1.171-0.95-2.121-2.121-2.121   h-35.129c-1.171,0-2.121,0.95-2.121,2.121v4.706C301.887,344.895,302.837,345.845,304.008,345.845z"/>
        <path style="fill:#F5F5F5;"
              d="M216.652,345.845h35.075c1.171,0,2.121-0.95,2.121-2.121v-4.706c0-1.171-0.95-2.121-2.121-2.121   h-35.075c-1.171,0-2.121,0.95-2.121,2.121v4.706C214.531,344.895,215.481,345.845,216.652,345.845z"/>
        <path style="fill:#F5F5F5;"
              d="M295.405,336.897H260.33c-1.171,0-2.121,0.95-2.121,2.121v4.706c0,1.171,0.95,2.121,2.121,2.121   h35.075c1.171,0,2.121-0.95,2.121-2.121v-4.706C297.526,337.846,296.576,336.897,295.405,336.897z"/>
        <path style="fill:#F5F5F5;"
              d="M208.049,336.897h-35.075c-1.171,0-2.121,0.95-2.121,2.121v4.706c0,1.171,0.95,2.121,2.121,2.121   h35.075c1.171,0,2.121-0.95,2.121-2.121v-4.706C210.17,337.846,209.221,336.897,208.049,336.897z"/>
        <path style="fill:#F5F5F5;"
              d="M129.297,345.845h35.017c1.171,0,2.121-0.95,2.121-2.121v-4.706c0-1.171-0.95-2.121-2.121-2.121   h-35.017c-1.171,0-2.121,0.95-2.121,2.121v4.706C127.176,344.895,128.125,345.845,129.297,345.845z"/>
        <path style="fill:#F5F5F5;"
              d="M120.694,336.897H85.619c-1.171,0-2.121,0.95-2.121,2.121v4.706c0,1.171,0.95,2.121,2.121,2.121   h35.075c1.171,0,2.121-0.95,2.121-2.121v-4.706C122.815,337.846,121.865,336.897,120.694,336.897z"/>
        <path style="fill:#F5F5F5;"
              d="M41.944,345.845h35.015c1.171,0,2.121-0.95,2.121-2.121v-4.706c0-1.171-0.95-2.121-2.121-2.121   H41.944c-1.171,0-2.121,0.95-2.121,2.121v4.706C39.823,344.895,40.773,345.845,41.944,345.845z"/>
        <path style="fill:#F5F5F5;"
              d="M35.405,343.724v-4.706c0-1.171-0.95-2.121-2.121-2.121H0v8.948h33.284   C34.455,345.845,35.405,344.895,35.405,343.724z"/>
</g>
    <g>
	<path style="fill:#FF4B55;"
          d="M247.267,206.081c3.133,0.836,6.475-0.084,8.771-2.423c3.466,3.509,9.146,3.592,12.738,0.169   c2.34-2.256,3.3-5.682,2.464-8.771c-3.047,4.929-9.48,6.516-14.409,3.425c-0.25-0.169-0.584-0.336-0.794-0.502   c-4.636,3.425-11.192,2.506-14.701-2.087c-0.126-0.253-0.376-0.586-0.543-0.836C239.541,199.901,242.464,204.911,247.267,206.081z"/>
        <path style="fill:#FF4B55;"
              d="M266.724,303.66c11.227-6.163,20.595-15.875,25.733-28.665c8.748-21.925,3.238-46.672-13.495-62.724   c-0.575-0.552-1.449,0.186-1.032,0.866c16.504,26.915,10.003,62.286-15.537,81.667l1.221-78.185   c0.017-1.062-0.456-2.072-1.282-2.74l-4.153-3.357c-1.272-1.028-3.091-1.023-4.357,0.012l-4.093,3.346   c-0.817,0.668-1.283,1.672-1.267,2.726l1.187,78.241c-25.544-19.372-32.06-54.774-15.581-81.708   c0.416-0.68-0.458-1.417-1.033-0.865c-16.703,16.052-22.246,40.797-13.499,62.721c5.137,12.79,14.505,22.501,25.735,28.664   c-7.146,2.449-14.658,3.748-22.254,3.53c-0.802-0.023-0.964,1.106-0.196,1.339c9.65,2.929,19.575,3.131,28.907,1.039l3.664,7.109   c0.253,0.491,0.955,0.492,1.21,0.002l3.689-7.105c9.333,2.088,19.261,1.883,28.918-1.045c0.768-0.233,0.607-1.361-0.195-1.338   C281.412,307.406,273.882,306.108,266.724,303.66z"/>
        <path style="fill:#FF4B55;"
              d="M312.422,230.974c-5.746-10.736-15.289-18.872-26.648-22.858c-0.712-0.25-1.267,0.69-0.685,1.169   c25.077,20.658,30.105,57.45,10.711,84.088c-1.003,1.337-2.089,2.757-3.133,3.924C316.474,284.518,325.286,254.781,312.422,230.974   z"/>
        <path style="fill:#FF4B55;"
              d="M216.236,293.373c-19.393-26.637-14.406-63.428,10.667-84.086c0.582-0.48,0.027-1.419-0.685-1.169   c-11.345,3.987-20.821,12.122-26.605,22.857c-12.946,23.807-4.05,53.544,19.797,66.323   C218.283,296.129,217.197,294.71,216.236,293.373z"/>
</g>
    <g>
</g>
    <g>
</g>
    <g>
</g>
    <g>
</g>
    <g>
</g>
    <g>
</g>
    <g>
</g>
    <g>
</g>
    <g>
</g>
    <g>
</g>
    <g>
</g>
    <g>
</g>
    <g>
</g>
    <g>
</g>
    <g>
</g>
</svg>
