<?xml version="1.0" encoding="iso-8859-1"?>
<!-- Generator: Adobe Illustrator 19.0.0, SVG Export Plug-In . SVG Version: 6.00 Build 0)  -->
<svg xmlns="http://www.w3.org/2000/svg" xmlns:xlink="http://www.w3.org/1999/xlink" version="1.1" id="Layer_1" x="0px"
     y="0px" viewBox="0 0 512 512" style="enable-background:new 0 0 512 512;" xml:space="preserve">
<g>
	<rect style="fill:#82AFFF;" width="512" height="170.67"/>
    <rect y="341.33" style="fill:#82AFFF;" width="512" height="170.67"/>
</g>
    <rect y="170.67" style="fill:#F5F5F5;" width="512" height="170.67"/>
    <path style="fill:#F09146;"
          d="M325.002,252.031h-49.689c0.926-0.708,1.659-1.403,2.324-2.059c1.213-1.192,2.177-2.14,4.737-3.197  c2.574-1.084,3.922-1.097,5.627-1.124c2.055-0.014,4.38-0.054,8.181-1.625c3.794-1.585,5.451-3.21,6.914-4.646  c1.213-1.192,2.177-2.14,4.744-3.21c2.554-1.07,3.895-1.084,5.593-1.097c2.049-0.027,4.373-0.054,8.174-1.639l-2.655-6.393  c-2.554,1.07-3.895,1.084-5.593,1.097c-2.048,0.027-4.373,0.054-8.167,1.625c-3.794,1.585-5.451,3.21-6.914,4.646  c-1.213,1.192-2.177,2.14-4.737,3.197c-2.574,1.084-3.922,1.097-5.627,1.124c-2.055,0.014-4.38,0.054-8.18,1.639  c-3.794,1.571-5.451,3.21-6.914,4.646c-1.194,1.167-2.181,2.103-4.638,3.146l39.051-39.242l-4.879-4.903l-35.152,35.323  c0.155-1.155,0.197-2.183,0.206-3.114c0.02-1.72,0.034-3.061,1.098-5.648c1.065-2.587,2.008-3.549,3.194-4.768  c1.442-1.476,3.066-3.156,4.643-6.975c1.57-3.82,1.597-6.149,1.617-8.208c0.02-1.707,0.034-3.061,1.092-5.635  c1.065-2.573,2.001-3.535,3.187-4.754c1.435-1.476,3.059-3.142,4.629-6.948l-6.375-2.655c-1.065,2.573-2.001,3.535-3.187,4.754  c-1.435,1.476-3.059,3.142-4.629,6.948c-1.57,3.82-1.597,6.149-1.617,8.208c-0.02,1.707-0.034,3.061-1.092,5.635  c-1.065,2.587-2.008,3.549-3.194,4.768c-1.442,1.476-3.066,3.156-4.643,6.975c-1.57,3.82-1.597,6.163-1.624,8.222  c-0.013,1.67-0.06,3.02-1.058,5.5V186.15h-6.9v49.936c-0.703-0.926-1.393-1.66-2.042-2.327c-1.193-1.219-2.129-2.194-3.194-4.768  c-1.065-2.587-1.085-3.941-1.105-5.662c-0.02-2.059-0.047-4.402-1.624-8.222c-1.57-3.806-3.194-5.472-4.629-6.948  c-1.186-1.219-2.123-2.181-3.187-4.754c-1.058-2.573-1.071-3.928-1.092-5.635c-0.02-2.059-0.047-4.388-1.617-8.194l-6.375,2.655  c1.058,2.573,1.071,3.914,1.092,5.621c0.02,2.059,0.047,4.388,1.617,8.208c1.57,3.806,3.194,5.472,4.629,6.948  c1.186,1.219,2.123,2.181,3.187,4.754c1.065,2.587,1.085,3.941,1.105,5.662c0.02,2.059,0.047,4.402,1.624,8.222  c1.57,3.82,3.194,5.486,4.629,6.962c1.169,1.195,2.094,2.192,3.133,4.653l-39.056-39.246l-4.879,4.903l38.995,39.185  c-2.139-0.977-3.171-1.873-4.292-2.967c-1.476-1.449-3.14-3.088-6.954-4.673c-3.801-1.571-6.125-1.612-8.181-1.639  c-1.712-0.014-3.059-0.041-5.654-1.124c-2.594-1.07-3.565-2.018-4.798-3.224c-1.476-1.436-3.147-3.075-6.968-4.673  c-3.814-1.585-6.146-1.612-8.208-1.639c-1.718-0.027-3.073-0.054-5.667-1.138l-2.642,6.42c3.814,1.585,6.146,1.612,8.208,1.639  c1.718,0.027,3.073,0.054,5.667,1.138c2.601,1.07,3.571,2.018,4.805,3.224c1.476,1.449,3.147,3.075,6.961,4.659  c3.814,1.598,6.146,1.625,8.201,1.652c1.712,0.027,3.059,0.041,5.64,1.124c2.581,1.07,3.544,2.018,4.764,3.21  c0.626,0.618,1.326,1.271,2.175,1.937h-49.823v6.935h55.114c-2.177,0.833-3.54,0.937-5.1,0.962c-2.055,0.014-4.38,0.054-8.187,1.625  c-3.807,1.585-5.478,3.224-6.954,4.659c-1.226,1.205-2.19,2.154-4.771,3.224c-2.594,1.084-3.949,1.111-5.667,1.138  c-2.062,0.027-4.394,0.054-8.208,1.639c-3.821,1.598-5.492,3.224-6.968,4.673c-1.233,1.205-2.204,2.154-4.798,3.224l2.642,6.42  c3.814-1.598,5.485-3.224,6.961-4.673c1.233-1.205,2.203-2.154,4.805-3.224c2.594-1.084,3.949-1.111,5.667-1.138  c2.062-0.027,4.394-0.054,8.214-1.652c3.801-1.585,5.465-3.21,6.941-4.659c1.22-1.192,2.19-2.14,4.778-3.21  c2.574-1.084,3.929-1.097,5.633-1.124c0.873-0.006,1.856-0.063,2.92-0.194l-35.252,35.423l4.879,4.903l38.976-39.165  c-0.959,2.139-1.846,3.173-2.938,4.301c-1.435,1.476-3.059,3.156-4.636,6.975c-1.577,3.82-1.611,6.176-1.631,8.235  c-0.027,1.72-0.04,3.075-1.112,5.675c-1.071,2.614-2.022,3.589-3.214,4.822c-1.442,1.476-3.066,3.169-4.65,7.003  s-1.611,6.176-1.637,8.249c-0.027,1.72-0.047,3.088-1.119,5.689l6.375,2.655c1.584-3.833,1.611-6.176,1.637-8.249  c0.027-1.72,0.047-3.088,1.119-5.689c1.071-2.614,2.022-3.589,3.214-4.822c1.442-1.476,3.066-3.169,4.65-7.003  c1.577-3.82,1.611-6.176,1.631-8.235c0.027-1.72,0.04-3.075,1.112-5.675c1.065-2.601,2.008-3.562,3.201-4.795  c0.613-0.631,1.264-1.336,1.927-2.191v50.084h6.9V269.46c0.822,2.185,0.926,3.55,0.95,5.123c0.02,2.059,0.054,4.402,1.631,8.222  c1.57,3.833,3.201,5.513,4.636,6.989c1.193,1.233,2.136,2.208,3.208,4.808c1.071,2.601,1.092,3.969,1.119,5.689  c0.027,2.072,0.054,4.415,1.637,8.249c1.584,3.833,3.207,5.526,4.65,7.003c1.193,1.233,2.143,2.208,3.214,4.822l6.375-2.655  c-1.584-3.833-3.208-5.526-4.65-7.003c-1.193-1.233-2.143-2.208-3.214-4.822c-1.071-2.601-1.092-3.969-1.119-5.689  c-0.027-2.072-0.054-4.416-1.637-8.249c-1.577-3.833-3.201-5.513-4.636-6.989c-1.193-1.233-2.136-2.208-3.208-4.808  c-1.071-2.587-1.085-3.941-1.112-5.662c-0.008-0.876-0.066-1.866-0.197-2.936l35.258,35.429l4.879-4.903l-35.146-35.317  c1.141,0.153,2.163,0.198,3.085,0.21c1.705,0.014,3.046,0.027,5.62,1.097c2.574,1.084,3.538,2.018,4.757,3.224  c1.469,1.436,3.133,3.075,6.934,4.659c3.794,1.571,6.119,1.598,8.167,1.612c1.698,0.027,3.039,0.041,5.6,1.111  c2.561,1.056,3.518,2.005,4.73,3.197c1.469,1.436,3.127,3.075,6.92,4.659l2.641-6.42c-2.561-1.056-3.517-2.005-4.73-3.197  c-1.469-1.436-3.127-3.075-6.92-4.659c-3.794-1.571-6.119-1.598-8.167-1.612c-1.698-0.027-3.039-0.041-5.6-1.111  c-2.574-1.07-3.538-2.005-4.757-3.21c-1.469-1.436-3.133-3.075-6.934-4.646c-3.801-1.598-6.125-1.625-8.181-1.639  c-1.674-0.027-3.027-0.059-5.51-1.07h55.26v-6.935L325.002,252.031L325.002,252.031z"/>
    <ellipse style="fill:#FFE15A;" cx="256" cy="255.5" rx="34.501" ry="34.674"/>
    <g>
</g>
    <g>
</g>
    <g>
</g>
    <g>
</g>
    <g>
</g>
    <g>
</g>
    <g>
</g>
    <g>
</g>
    <g>
</g>
    <g>
</g>
    <g>
</g>
    <g>
</g>
    <g>
</g>
    <g>
</g>
    <g>
</g>
</svg>
