<?xml version="1.0" encoding="UTF-8"?>
<svg width="24px" height="24px" viewBox="0 0 24 24" version="1.1" xmlns="http://www.w3.org/2000/svg"
     xmlns:xlink="http://www.w3.org/1999/xlink">
    <!-- Generator: Sketch 50.2 (55047) - http://www.bohemiancoding.com/sketch -->
    <title>Stockholm-icons / Map / Direction2</title>
    <desc>Created with Sketch.</desc>
    <defs></defs>
    <g id="Stockholm-icons-/-Map-/-Direction2" stroke="none" stroke-width="1" fill="none" fill-rule="evenodd">
        <rect id="bound" x="0" y="0" width="24" height="24"></rect>
        <path
            d="M14,13.381038 L14,3.47213595 L7.99460483,15.4829263 L14,13.381038 Z M4.88230018,17.2353996 L13.2844582,0.431083506 C13.4820496,0.0359007077 13.9625881,-0.12427877 14.3577709,0.0733126292 C14.5125928,0.15072359 14.6381308,0.276261584 14.7155418,0.431083506 L23.1176998,17.2353996 C23.3152912,17.6305824 23.1551117,18.1111209 22.7599289,18.3087123 C22.5664522,18.4054506 22.3420471,18.4197165 22.1378777,18.3482572 L14,15.5 L5.86212227,18.3482572 C5.44509941,18.4942152 4.98871325,18.2744737 4.84275525,17.8574509 C4.77129597,17.6532815 4.78556182,17.4288764 4.88230018,17.2353996 Z"
            id="Path-99" fill="#000000" fill-rule="nonzero"
            transform="translate(14.000087, 9.191034) rotate(-315.000000) translate(-14.000087, -9.191034) "></path>
    </g>
</svg>
